127.0.0.1 status.oneview.roku.com
127.0.0.1 trust-racing-homer.web.roku.com
127.0.0.1 ca-vod.delivery.roku.com
127.0.0.1 roku-live.delivery.roku.com
127.0.0.1 uk-vod.delivery.roku.com
127.0.0.1 us-vod.delivery.roku.com
127.0.0.1 vod.delivery.roku.com
127.0.0.1 component-cdn.cs.roku.com
127.0.0.1 docs.qa.roku.com
# 127.0.0.1 docs.roku.com
127.0.0.1 docs.staging.roku.com
127.0.0.1 customcontent.acr.roku.com
127.0.0.1 prod.mobile.roku.com
127.0.0.1 stg.mobile.roku.com
127.0.0.1 qa.mobile.roku.com
127.0.0.1 rokumesh-dev.us-east-1.tools.roku.com
127.0.0.1 rokumesh-dev.us-west-2.tools.roku.com
127.0.0.1 amoeba2.web.roku.com
127.0.0.1 amoeba-global.web.roku.com
127.0.0.1 amoeba-plus.web.roku.com
127.0.0.1 amoeba.us-east-1.msc.roku.com
127.0.0.1 amoeba.web.roku.com
127.0.0.1 amoeba.us-west-2.msc.roku.com
127.0.0.1 tvupdate.qa.roku.com
# 127.0.0.1 tvupdate.roku.com
127.0.0.1 tvupdate.staging.roku.com
127.0.0.1 roku-pwn-check.trust.roku.com
127.0.0.1 nmr.dev.msc.roku.com
127.0.0.1 amoeba.us-east-1.dev.msc.roku.com
127.0.0.1 amoeba.us-west-2.dev.msc.roku.com
127.0.0.1 echo.split.dev.msc.roku.com
# 127.0.0.1 channelstore.roku.com
# 127.0.0.1 my.roku.com
# 127.0.0.1 roku.com
127.0.0.1 support.roku.com
127.0.0.1 www.roku.com
127.0.0.1 apollo-qa.web.roku.com
127.0.0.1 apollo-staging.web.roku.com
127.0.0.1 hello.roku.com
127.0.0.1 www.demo.trust.roku.com
127.0.0.1 demo.trust.roku.com
127.0.0.1 trust-demo-project.demo.trust.roku.com
127.0.0.1 test.oneview.roku.com
127.0.0.1 screen-builder-assets-qa.web.roku.com
127.0.0.1 screen-builder-assets.web.roku.com
127.0.0.1 ss.cti.roku.com
127.0.0.1 ss-us-east-1.cti.roku.com
127.0.0.1 i-staging.data.roku.com
127.0.0.1 partnersuccess.roku.com
127.0.0.1 es.staging.rpay.int.roku.com
127.0.0.1 es-main.qa.rpay.int.roku.com
127.0.0.1 es.qa.rpay.int.roku.com
127.0.0.1 es.prod.rpay.int.roku.com
127.0.0.1 mi.roku.com
# 127.0.0.1 mobile-app.roku.com
127.0.0.1 ss.dev.cti.roku.com
127.0.0.1 ss-us-east-1.dev.cti.roku.com
127.0.0.1 dev.mobile.roku.com
127.0.0.1 shopify.roku.com
127.0.0.1 admanager.roku.com
127.0.0.1 rokumesh-2.us-west-2.dev.msc.roku.com
127.0.0.1 mayfly.trust.roku.com
127.0.0.1 irs2-tools-stg.cti.roku.com
127.0.0.1 info.advertising.roku.com
127.0.0.1 my.beta.roku.com
127.0.0.1 ids-vast-proxy.etete.ren.roku.com
127.0.0.1 photostreams.roku.com
127.0.0.1 rml.data.roku.com
127.0.0.1 rml-qa.data.roku.com
127.0.0.1 rml-staging.data.roku.com
127.0.0.1 api-blue.qa.rpay.roku.com
127.0.0.1 api.qa.rpay.roku.com
127.0.0.1 cigars2.roku.com
127.0.0.1 cigars2.web.roku.com
127.0.0.1 i.email1.roku.com
127.0.0.1 loggage.trust.roku.com
# 127.0.0.1 update.roku.com
127.0.0.1 delta-staging.ads.roku.com
127.0.0.1 api.oneview.roku.com
127.0.0.1 optimus.cti.roku.com
127.0.0.1 optimus.us-east-1.cti.roku.com
127.0.0.1 tableau.cti.roku.com
127.0.0.1 rokumesh-sandbox.us-west-2.dev.msc.roku.com
127.0.0.1 info.ads.roku.com
127.0.0.1 rokumesh-2.us-west-2.msc.roku.com
127.0.0.1 rokumesh-2.us-east-1.msc.roku.com
127.0.0.1 nodejs.uxeng.roku.com
127.0.0.1 js-sdk.roku.com
127.0.0.1 sms-staging.data.roku.com
127.0.0.1 rokumesh-2.us-east-1.dev.msc.roku.com
127.0.0.1 rokumesh-b-4.us-west-2.dev.msc.roku.com
127.0.0.1 coverity.trust.roku.com
127.0.0.1 ravm-perf.data.roku.com
127.0.0.1 etail-advisor.roku.com
127.0.0.1 prometheus-zk-dev-24000-development-us-east-1.dev.cti.roku.com
127.0.0.1 prometheus-zk-prod-24000-prod-us-east-1.cti.roku.com
127.0.0.1 prometheus-zk-qa-24000-qa-us-east-1.qa.cti.roku.com
127.0.0.1 prometheus-zk-stg-24000-staging-us-east-1.stg.cti.roku.com
127.0.0.1 dashboard.unity.roku.com
127.0.0.1 tableau.dev.cti.roku.com
127.0.0.1 reports.ren.roku.com
127.0.0.1 rocketpi.roku.com
# 127.0.0.1 blog.roku.com
127.0.0.1 pubdashboards.data.roku.com
127.0.0.1 pubdashboards.web.roku.com
127.0.0.1 ss-us-west-2.cti.roku.com
127.0.0.1 channels.acr.roku.com
127.0.0.1 voice5.dev.cti.roku.com
127.0.0.1 voice5.us-west-2.dev.cti.roku.com
127.0.0.1 rokumesh-qa.us-east-1.dev.msc.roku.com
127.0.0.1 adview.acr.roku.com
127.0.0.1 daiem.etete.ren.roku.com
127.0.0.1 disco-portal.assets.web.roku.com
127.0.0.1 disco-portal.qa.assets.web.roku.com
127.0.0.1 disco-portal.staging.assets.web.roku.com
127.0.0.1 etete.ren.roku.com
127.0.0.1 impressions.etete.ren.roku.com
127.0.0.1 ids-schedule.etete.ren.roku.com
127.0.0.1 ids-consumer.etete.ren.roku.com
127.0.0.1 keys.cti.roku.com
127.0.0.1 keys.us-east-1.cti.roku.com
127.0.0.1 keys.us-west-2.cti.roku.com
127.0.0.1 nmr.rokumesh-2.msc.roku.com
127.0.0.1 nmr.rokumesh.msc.roku.com
127.0.0.1 amoeba.rokumesh-2.us-east-1.msc.roku.com
127.0.0.1 amoeba.rokumesh.us-east-1.msc.roku.com
127.0.0.1 amoeba.rokumesh-2.us-west-2.msc.roku.com
127.0.0.1 amoeba.rokumesh.us-west-2.msc.roku.com
127.0.0.1 amoeba.rokumesh-2.us-west-2.dev.msc.roku.com
127.0.0.1 amoeba.rokumesh.us-west-2.dev.msc.roku.com
127.0.0.1 amoeba.rokumesh-2.us-east-1.dev.msc.roku.com
127.0.0.1 amoeba.rokumesh.us-east-1.dev.msc.roku.com
127.0.0.1 voice-public.dev.cti.roku.com
127.0.0.1 pmp-api.data.roku.com
127.0.0.1 irs2-tools.cti.roku.com
127.0.0.1 storybook.ren.roku.com
127.0.0.1 soundbridgeupgrade.roku.com
127.0.0.1 mesh.dev.msc.roku.com
127.0.0.1 nmr.rokumesh-2.dev.msc.roku.com
127.0.0.1 nmr.rokumesh.dev.msc.roku.com
127.0.0.1 identity-internal.ads.roku.com
127.0.0.1 identity-internal-dev.ads.roku.com
127.0.0.1 bi.oneview.roku.com
127.0.0.1 www-preprod.web.roku.com
127.0.0.1 rokumesh-slack.dev.msc.roku.com
127.0.0.1 qajenkins.prod.rpay.int.roku.com
127.0.0.1 irs2-tools-dev.dev.cti.roku.com
127.0.0.1 bmog.data.roku.com
127.0.0.1 voice3.cti.roku.com
127.0.0.1 voice4.cti.roku.com
127.0.0.1 voice5.canary.cti.roku.com
127.0.0.1 voice5-canary.us-west-2.cti.roku.com
127.0.0.1 voice5.cti.roku.com
127.0.0.1 voice5.main.cti.roku.com
127.0.0.1 voice5.us-west-2.cti.roku.com
127.0.0.1 stillheresvc.trust.roku.com
127.0.0.1 stillhere.trust.roku.com
127.0.0.1 ziptie.web.roku.com
127.0.0.1 rpm.billing.staging.roku.com
127.0.0.1 assets.cs.roku.com
127.0.0.1 community.roku.com
# 127.0.0.1 forums.roku.com
127.0.0.1 swup.eng.roku.com
127.0.0.1 ir.roku.com
127.0.0.1 wwwimg.staging.roku.com
127.0.0.1 channels.staging.roku.com
127.0.0.1 austin.uploads.roku.com
127.0.0.1 sms.data.roku.com
127.0.0.1 optimus.dev.wink.roku.com
127.0.0.1 optimus.us-east-1.dev.wink.roku.com
127.0.0.1 login.oneview.roku.com
127.0.0.1 pag.staging.cs.roku.com
127.0.0.1 alexa.dev.cti.roku.com
127.0.0.1 rpm.billing.qa.roku.com
127.0.0.1 login-stg.oneview.roku.com
127.0.0.1 oneview.roku.com
127.0.0.1 api-blue.staging.rpay.roku.com
127.0.0.1 api.staging.rpay.roku.com
127.0.0.1 identity.ads.roku.com
127.0.0.1 demo.oneview.roku.com
127.0.0.1 link.roku.com
127.0.0.1 mousetrap.trust.roku.com
127.0.0.1 soundbridge.roku.com
127.0.0.1 photobridge.roku.com
127.0.0.1 optimus.us-east-1.wink.roku.com
127.0.0.1 optimus.wink.roku.com
127.0.0.1 identity-dev.ads.roku.com
127.0.0.1 bamlb.data.roku.com
127.0.0.1 freeview-creds.cti.roku.com
127.0.0.1 api-blue.rpay.roku.com
127.0.0.1 api.rpay.roku.com
127.0.0.1 alexa.cti.roku.com
127.0.0.1 wwwimg.roku.com
127.0.0.1 trustservices.roku.com
127.0.0.1 mock-service.qa.ap.int.roku.com
127.0.0.1 help.oneview.roku.com
127.0.0.1 shop-admin.roku.com
127.0.0.1 connect2.roku.com
127.0.0.1 connect-aar.roku.com
127.0.0.1 connect-apac.roku.com
127.0.0.1 connect-atx.roku.com
127.0.0.1 connect-aws.roku.com
127.0.0.1 connect-cph.roku.com
127.0.0.1 connect-east.roku.com
127.0.0.1 connect-eu.roku.com
127.0.0.1 connect-gbr.roku.com
127.0.0.1 connect-hq.roku.com
127.0.0.1 connect-nyc.roku.com
127.0.0.1 connect.roku.com
127.0.0.1 connect-west.roku.com
127.0.0.1 vpn.roku.com
127.0.0.1 gateway-blue.prod.rpay.int.roku.com
127.0.0.1 gateway.prod.rpay.int.roku.com
127.0.0.1 web-blue.prod.rpay.int.roku.com
127.0.0.1 web.prod.rpay.int.roku.com
127.0.0.1 gateway-blue.qa.rpay.int.roku.com
127.0.0.1 gateway.qa.rpay.int.roku.com
127.0.0.1 web-blue.qa.rpay.int.roku.com
127.0.0.1 web.qa.rpay.int.roku.com
127.0.0.1 web-blue.staging.rpay.int.roku.com
127.0.0.1 web.staging.rpay.int.roku.com
127.0.0.1 gateway-blue.staging.rpay.int.roku.com
127.0.0.1 gateway.staging.rpay.int.roku.com
127.0.0.1 mediacenter.roku.com
127.0.0.1 ls.stg.cti.roku.com
127.0.0.1 display.staging.data.roku.com
127.0.0.1 ravm-staging.data.roku.com
127.0.0.1 ravm-staging-e.data.roku.com
127.0.0.1 ravm-staging-w.data.roku.com
127.0.0.1 rxr-staging.data.roku.com
127.0.0.1 developer.partner.roku.com
127.0.0.1 pag.cs.roku.com
127.0.0.1 voice5-canary.us-east-1.cti.roku.com
127.0.0.1 voice5.us-east-1.cti.roku.com
127.0.0.1 ttsr.cti.roku.com
127.0.0.1 newsroom.roku.com
127.0.0.1 jenkins.tools.roku.com
127.0.0.1 rxr-e.data.roku.com
127.0.0.1 rxr-w.data.roku.com
127.0.0.1 voice4.stg.cti.roku.com
127.0.0.1 voice5.stg.cti.roku.com
127.0.0.1 voice5.us-east-1.stg.cti.roku.com
127.0.0.1 therokuchannel.roku.com
127.0.0.1 mediacenter.staging.roku.com
127.0.0.1 adsmanager.roku.com
127.0.0.1 selfserve.roku.com
127.0.0.1 owner.web.roku.com
127.0.0.1 voice5.us-west-2.stg.cti.roku.com
127.0.0.1 voice5.us-east-1.dev.cti.roku.com
127.0.0.1 captive.roku.com
127.0.0.1 ravm-qa-e.data.roku.com
127.0.0.1 ravm-qa-w.data.roku.com
127.0.0.1 reset.trust.roku.com
127.0.0.1 bbc-creds.cti.roku.com
127.0.0.1 ls.qa.cti.roku.com
127.0.0.1 rpm.billing.roku.com
127.0.0.1 ls.cti.roku.com
127.0.0.1 analytics.roku.com
127.0.0.1 esp.logs.roku.com
127.0.0.1 admin.advertising.roku.com
127.0.0.1 advertising.roku.com
127.0.0.1 user-entities.cti.roku.com
127.0.0.1 devdocs.roku.com
127.0.0.1 optimus.us-west-2.cti.roku.com
127.0.0.1 channels.qa.roku.com
127.0.0.1 adservices.roku.com
127.0.0.1 prerender.web.roku.com
127.0.0.1 sdkdocs-archive.roku.com
127.0.0.1 sdkdocs-archive.web.roku.com
127.0.0.1 apollo-pre-production.web.roku.com
127.0.0.1 hue.data.roku.com
127.0.0.1 demo.uxeng.roku.com
127.0.0.1 es-apm-blue.prod.rpay.int.roku.com
127.0.0.1 es-apm-green.prod.rpay.int.roku.com
127.0.0.1 es-apm.prod.rpay.int.roku.com
127.0.0.1 es-apm-blue.qa.rpay.int.roku.com
127.0.0.1 es-apm-green.qa.rpay.int.roku.com
127.0.0.1 es-apm.qa.rpay.int.roku.com
127.0.0.1 es-apm-blue.staging.rpay.int.roku.com
127.0.0.1 es-apm-green.staging.rpay.int.roku.com
127.0.0.1 es-apm.staging.rpay.int.roku.com
127.0.0.1 drss.stg.cti.roku.com
127.0.0.1 drss.qa.cti.roku.com
127.0.0.1 gitlab-partner.tools.roku.com
127.0.0.1 gitlab-mediatek-sandbox.tools.roku.com
127.0.0.1 samples.voice.stg.cti.roku.com
127.0.0.1 devtools.web.roku.com
127.0.0.1 tts.stg.cti.roku.com
127.0.0.1 plugins.qa.roku.com
127.0.0.1 privacy.roku.com
127.0.0.1 pub-blue.staging.rpay.roku.com
127.0.0.1 pub.staging.rpay.roku.com
127.0.0.1 vga.stg.cti.roku.com
127.0.0.1 user-entities.qa.cti.roku.com
127.0.0.1 optimus.dev.cti.roku.com
127.0.0.1 optimus.us-east-1.dev.cti.roku.com
127.0.0.1 user-entities.dev.cti.roku.com
127.0.0.1 optimus.us-west-2.dev.cti.roku.com
127.0.0.1 pub-blue.qa.rpay.roku.com
127.0.0.1 pub.qa.rpay.roku.com
127.0.0.1 external.logs.roku.com
127.0.0.1 tts.qa.cti.roku.com
127.0.0.1 tts.cti.roku.com
127.0.0.1 p.ads.roku.com
127.0.0.1 airflow.dev.cti.roku.com
127.0.0.1 airflow.stg.cti.roku.com
127.0.0.1 apollo.web.roku.com
127.0.0.1 seismic.portal.roku.com
127.0.0.1 airflow.qa.cti.roku.com
127.0.0.1 apps-creds.cti.roku.com
127.0.0.1 delta.ads.roku.com
127.0.0.1 channels.roku.com
127.0.0.1 artifactory-xray.tools.roku.com
127.0.0.1 voice-public.canary.cti.roku.com
127.0.0.1 voice-public.cti.roku.com
127.0.0.1 voice-public.canary.stg.cti.roku.com
127.0.0.1 voice-public.stg.cti.roku.com
127.0.0.1 pub-blue.rpay.roku.com
127.0.0.1 pub.rpay.roku.com
127.0.0.1 sdkdocs.roku.com
127.0.0.1 cigars.roku.com
127.0.0.1 cigars.staging.roku.com
127.0.0.1 plugins.roku.com
127.0.0.1 optimus.us-west-2.wink.roku.com
127.0.0.1 optimus.us-west-2.dev.wink.roku.com
127.0.0.1 activate.roku.com
127.0.0.1 help.corp.roku.com
127.0.0.1 pubkeys1.tis.cti.roku.com
127.0.0.1 pubkeys2.tis.cti.roku.com
127.0.0.1 sourcegraph.tools.roku.com
127.0.0.1 guest1.corp.roku.com
127.0.0.1 guest2.corp.roku.com
127.0.0.1 guest3.corp.roku.com
127.0.0.1 gitlab-mediatek.tools.roku.com
127.0.0.1 lat-services-dev.api.data.roku.com
127.0.0.1 jenkins.prod.rpay.int.roku.com
127.0.0.1 ttsr.stg.cti.roku.com
127.0.0.1 authenticate.roku.com
127.0.0.1 auth.web.roku.com
127.0.0.1 ls.dev.cti.roku.com
127.0.0.1 samples.voice.cti.roku.com
127.0.0.1 image.roku.com
# 127.0.0.1 tvupdate-fw.roku.com
127.0.0.1 go.roku.com
127.0.0.1 llatitude-dev.trust.roku.com
127.0.0.1 lat-services.api.data.roku.com
127.0.0.1 ttsr.qa.cti.roku.com
127.0.0.1 keysvc.cs.roku.com
127.0.0.1 ithelp.corp.roku.com
127.0.0.1 support.corp.roku.com
127.0.0.1 lingua.web.roku.com
127.0.0.1 developer-channels.qa.roku.com
127.0.0.1 developer-channels.staging.roku.com
127.0.0.1 developer.qa.roku.com
127.0.0.1 developer.roku.com
127.0.0.1 developer.staging.roku.com
127.0.0.1 coreupload-bar.cores.roku.com
127.0.0.1 irs2-tools-stg.dev.cti.roku.com
127.0.0.1 servicedesk.corp.roku.com
127.0.0.1 apipub.roku.com
127.0.0.1 voice3.canary.cti.roku.com
127.0.0.1 jira.portal.roku.com
127.0.0.1 AutoDiscover.roku.com
127.0.0.1 hybrid.roku.com
127.0.0.1 testrail.portal.roku.com
127.0.0.1 apipub.staging.roku.com
127.0.0.1 configsvc.cs.roku.com
127.0.0.1 apipub.qa.roku.com
127.0.0.1 confluence.portal.roku.com
127.0.0.1 aqualab.portal.roku.com
127.0.0.1 login.portal.roku.com
127.0.0.1 oem.portal.roku.com
127.0.0.1 dl.email1.roku.com
127.0.0.1 dl.emailsn.roku.com
127.0.0.1 email1.roku.com
127.0.0.1 emailsn.roku.com
127.0.0.1 l.email1.roku.com
127.0.0.1 l.emailsn.roku.com
127.0.0.1 s.email1.roku.com
127.0.0.1 s.emailsn.roku.com
127.0.0.1 w.email1.roku.com
127.0.0.1 w.emailsn.roku.com
127.0.0.1 x.email1.roku.com
127.0.0.1 x.emailsn.roku.com
127.0.0.1 confluencestg.portal.roku.com
127.0.0.1 jirastg.portal.roku.com
127.0.0.1 maintenance.roku.com
127.0.0.1 wakeword.cti.roku.com
127.0.0.1 mail.www--roku.com.cp-ht-8.hostgatorwebservers.com
127.0.0.1 www--roku.com.cp-ht-8.hostgatorwebservers.com
127.0.0.1 www.www--roku.com.cp-ht-8.hostgatorwebservers.com
127.0.0.1 jenkins.eng.cs.roku.com
127.0.0.1 qajenkins.eng.cs.roku.com
127.0.0.1 triton.staging.web.roku.com
127.0.0.1 triton.web.roku.com
127.0.0.1 shop-backend.roku.com
127.0.0.1 austin.dev.uploads.roku.com
127.0.0.1 support.staging.roku.com
127.0.0.1 support.web.roku.com
127.0.0.1 blog-admin.roku.com
127.0.0.1 customer-feedbacks.web.roku.com
127.0.0.1 pag.qa.cs.roku.com
127.0.0.1 gitlab-sandbox.tools.roku.com
127.0.0.1 es.infra.sr.roku.com
127.0.0.1 kibana.infra.sr.roku.com
127.0.0.1 jecortez.voice.dev.cti.roku.com
127.0.0.1 jeroberts.voice.dev.cti.roku.com
127.0.0.1 syavorsky.voice.dev.cti.roku.com
127.0.0.1 wwwimg.qa.roku.com
127.0.0.1 guesthouse.portal.roku.com
127.0.0.1 guesthouse-staging.portal.roku.com
127.0.0.1 images.sr.roku.com
127.0.0.1 larie-staging.web.roku.com
127.0.0.1 larie.web.roku.com
127.0.0.1 api2-int.sr.roku.com
127.0.0.1 api2.sr.roku.com
127.0.0.1 beacon-staging.web.roku.com
127.0.0.1 beacon.web.roku.com
127.0.0.1 pixel-staging.web.roku.com
127.0.0.1 pixel.web.roku.com
127.0.0.1 facebook.roku.com
127.0.0.1 firmware.qa.roku.com
127.0.0.1 firmware.roku.com
